ALL0001-NP-260595.CSV

Format,2.0A,
Memory Length,5000,Memory Length,5000,Memory Length,5000,Memory Length,5000,
Trigger Level,6.80V,Trigger Level,6.80V,Trigger Level,6.80V,Trigger Level,6.80V,
Source,CH1,Source,CH2,Source,CH3,Source,CH4,
Label, ,Label, ,Label, ,Label, ,
Probe Ratio,1.000E+01,Probe Ratio,1.000E+01,Probe Ratio,1.000E+01,Probe Ratio,1.000E+01,
Vertical Units,V,Vertical Units,V,Vertical Units,V,Vertical Units,V,
Vertical Scale,1.000E+02,Vertical Scale,5.000E+01,Vertical Scale,5.000E-01,Vertical Scale,5.000E-01,
Vertical Position,1.960E+02,Vertical Position,2.000E+00,Vertical Position,-3.400E-01,Vertical Position,-1.160E+00,
Horizontal Units,S,Horizontal Units,S,Horizontal Units,S,Horizontal Units,S,
Horizontal Scale,1.000E-05,Horizontal Scale,1.000E-05,Horizontal Scale,1.000E-05,Horizontal Scale,1.000E-05,
Horizontal Position,1.728E-04,Horizontal Position,1.728E-04,Horizontal Position,1.728E-04,Horizontal Position,1.728E-04,
Horizontal Mode,Main,Horizontal Mode,Main,Horizontal Mode,Main,Horizontal Mode,Main,
Sampling Period,2.000E-08,Sampling Period,2.000E-08,Sampling Period,2.000E-08,Sampling Period,2.000E-08,
Firmware,V1.13,Firmware,V1.13,Firmware,V1.13,Firmware,V1.13,
Time,16-Aug-16 12:55:26,Time,16-Aug-16 12:55:26,Time,16-Aug-16 12:55:26,Time,16-Aug-16 12:55:26,
Mode,Detail,Mode,Detail,Mode,Detail,Mode,Detail,
Waveform Data,,Waveform Data,,Waveform Data,,Waveform Data,,
1.228000e-04,-4.000000,1.228000e-04,2.000000,1.228000e-04,0.040000,1.228000e-04,0.020000,
1.228200e-04,-4.000000,1.228200e-04,2.000000,1.228200e-04,0.040000,1.228200e-04,0.020000,
1.228400e-04,-4.000000,1.228400e-04,2.000000,1.228400e-04,0.060000,1.228400e-04,0.020000,
1.228600e-04,0.000000,1.228600e-04,2.000000,1.228600e-04,0.040000,1.228600e-04,0.020000,
1.228800e-04,-4.000000,1.228800e-04,2.000000,1.228800e-04,0.040000,1.228800e-04,0.020000,
1.229000e-04,-4.000000,1.229000e-04,2.000000,1.229000e-04,0.040000,1.229000e-04,0.020000,
1.229200e-04,-4.000000,1.229200e-04,2.000000,1.229200e-04,0.040000,1.229200e-04,0.000000,
1.229400e-04,-4.000000,1.229400e-04,2.000000,1.229400e-04,0.040000,1.229400e-04,0.020000,
1.229600e-04,0.000000,1.229600e-04,2.000000,1.229600e-04,0.040000,1.229600e-04,0.020000,
1.229800e-04,-4.000000,1.229800e-04,2.000000,1.229800e-04,0.040000,1.229800e-04,0.000000,
1.230000e-04,-4.000000,1.230000e-04,2.000000,1.230000e-04,0.040000,1.230000e-04,0.020000,
1.230200e-04,0.000000,1.230200e-04,2.000000,1.230200e-04,0.040000,1.230200e-04,0.020000,
1.230400e-04,0.000000,1.230400e-04,2.000000,1.230400e-04,0.040000,1.230400e-04,0.000000,
1.230600e-04,-4.000000,1.230600e-04,2.000000,1.230600e-04,0.040000,1.230600e-04,0.020000,
1.230800e-04,-4.000000,1.230800e-04,2.000000,1.230800e-04,0.040000,1.230800e-04,0.020000,
1.231000e-04,-4.000000,1.231000e-04,2.000000,1.231000e-04,0.040000,1.231000e-04,0.020000,
1.231200e-04,-4.000000,1.231200e-04,2.000000,1.231200e-04,0.040000,1.231200e-04,0.020000,
1.231400e-04,0.000000,1.231400e-04,2.000000,1.231400e-04,0.040000,1.231400e-04,0.020000,
1.231600e-04,0.000000,1.231600e-04,2.000000,1.231600e-04,0.040000,1.231600e-04,0.020000,
1.231800e-04,-4.000000,1.231800e-04,2.000000,1.231800e-04,0.040000,1.231800e-04,0.020000,
1.232000e-04,-4.000000,1.232000e-04,2.000000,1.232000e-04,0.040000,1.232000e-04,0.020000,
1.232200e-04,-4.000000,1.232200e-04,2.000000,1.232200e-04,0.040000,1.232200e-04,0.000000,
1.232400e-04,-4.000000,1.232400e-04,2.000000,1.232400e-04,0.040000,1.232400e-04,0.000000,
1.232600e-04,0.000000,1.232600e-04,2.000000,1.232600e-04,0.040000,1.232600e-04,0.020000,
1.232800e-04,0.000000,1.232800e-04,2.000000,1.232800e-04,0.040000,1.232800e-04,0.020000,
1.233000e-04,-4.000000,1.233000e-04,2.000000,1.233000e-04,0.040000,1.233000e-04,0.020000,
1.233200e-04,-4.000000,1.233200e-04,2.000000,1.233200e-04,0.040000,1.233200e-04,0.000000,
1.233400e-04,0.000000,1.233400e-04,2.000000,1.233400e-04,0.040000,1.233400e-04,0.020000,
1.233600e-04,0.000000,1.233600e-04,2.000000,1.233600e-04,0.040000,1.233600e-04,0.020000,
1.233800e-04,-4.000000,1.233800e-04,2.000000,1.233800e-04,0.040000,1.233800e-04,0.000000,
1.234000e-04,-4.000000,1.234000e-04,2.000000,1.234000e-04,0.040000,1.234000e-04,0.000000,
1.234200e-04,-4.000000,1.234200e-04,2.000000,1.234200e-04,0.040000,1.234200e-04,0.020000,
1.234400e-04,-4.000000,1.234400e-04,2.000000,1.234400e-04,0.040000,1.234400e-04,0.020000,
1.234600e-04,-4.000000,1.234600e-04,2.000000,1.234600e-04,0.040000,1.234600e-04,0.000000,
1.234800e-04,-4.000000,1.234800e-04,2.000000,1.234800e-04,0.040000,1.234800e-04,0.020000,
1.235000e-04,-4.000000,1.235000e-04,2.000000,1.235000e-04,0.040000,1.235000e-04,0.000000,
1.235200e-04,-4.000000,1.235200e-04,2.000000,1.235200e-04,0.040000,1.235200e-04,0.020000,
1.235400e-04,-4.000000,1.235400e-04,2.000000,1.235400e-04,0.040000,1.235400e-04,0.020000,
1.235600e-04,-4.000000,1.235600e-04,2.000000,1.235600e-04,0.040000,1.235600e-04,0.020000,
1.235800e-04,-4.000000,1.235800e-04,2.000000,1.235800e-04,0.040000,1.235800e-04,0.020000,
1.236000e-04,-4.000000,1.236000e-04,2.000000,1.236000e-04,0.040000,1.236000e-04,0.020000,
1.236200e-04,-4.000000,1.236200e-04,2.000000,1.236200e-04,0.040000,1.236200e-04,0.020000,
1.236400e-04,-4.000000,1.236400e-04,2.000000,1.236400e-04,0.060000,1.236400e-04,0.020000,
1.236600e-04,0.000000,1.236600e-04,2.000000,1.236600e-04,0.040000,1.236600e-04,0.000000,
1.236800e-04,-4.000000,1.236800e-04,2.000000,1.236800e-04,0.040000,1.236800e-04,0.000000,
1.237000e-04,0.000000,1.237000e-04,2.000000,1.237000e-04,0.040000,1.237000e-04,0.020000,
1.237200e-04,-4.000000,1.237200e-04,2.000000,1.237200e-04,0.040000,1.237200e-04,0.020000,
1.237400e-04,0.000000,1.237400e-04,2.000000,1.237400e-04,0.040000,1.237400e-04,0.040000,
1.237600e-04,0.000000,1.237600e-04,2.000000,1.237600e-04,0.040000,1.237600e-04,0.020000,
1.237800e-04,-4.000000,1.237800e-04,2.000000,1.237800e-04,0.040000,1.237800e-04,0.000000,
1.238000e-04,0.000000,1.238000e-04,2.000000,1.238000e-04,0.040000,1.238000e-04,0.020000,
1.238200e-04,-4.000000,1.238200e-04,2.000000,1.238200e-04,0.040000,1.238200e-04,0.020000,
1.238400e-04,-4.000000,1.238400e-04,2.000000,1.238400e-04,0.040000,1.238400e-04,0.020000,
1.238600e-04,-4.000000,1.238600e-04,2.000000,1.238600e-04,0.040000,1.238600e-04,0.020000,
1.238800e-04,-4.000000,1.238800e-04,2.000000,1.238800e-04,0.040000,1.238800e-04,0.020000,
1.239000e-04,0.000000,1.239000e-04,2.000000,1.239000e-04,0.040000,1.239000e-04,0.000000,
1.239200e-04,0.000000,1.239200e-04,2.000000,1.239200e-04,0.040000,1.239200e-04,0.020000,
1.239400e-04,-4.000000,1.239400e-04,2.000000,1.239400e-04,0.040000,1.239400e-04,0.000000,
1.239600e-04,-4.000000,1.239600e-04,2.000000,1.239600e-04,0.040000,1.239600e-04,0.020000,
1.239800e-04,-4.000000,1.239800e-04,2.000000,1.239800e-04,0.040000,1.239800e-04,0.020000,
1.240000e-04,-4.000000,1.240000e-04,2.000000,1.240000e-04,0.040000,1.240000e-04,0.020000,
1.240200e-04,-4.000000,1.240200e-04,2.000000,1.240200e-04,0.040000,1.240200e-04,0.020000,
1.240400e-04,-4.000000,1.240400e-04,2.000000,1.240400e-04,0.040000,1.240400e-04,0.020000,
1.240600e-04,-4.000000,1.240600e-04,2.000000,1.240600e-04,0.040000,1.240600e-04,0.020000,
1.240800e-04,-4.000000,1.240800e-04,2.000000,1.240800e-04,0.040000,1.240800e-04,0.000000,
1.241000e-04,-4.000000,1.241000e-04,2.000000,1.241000e-04,0.040000,1.241000e-04,0.000000,
1.241200e-04,0.000000,1.241200e-04,2.000000,1.241200e-04,0.040000,1.241200e-04,0.000000,
1.241400e-04,0.000000,1.241400e-04,2.000000,1.241400e-04,0.040000,1.241400e-04,0.000000,
1.241600e-04,0.000000,1.241600e-04,4.000000,1.241600e-04,0.040000,1.241600e-04,0.020000,
1.241800e-04,-4.000000,1.241800e-04,2.000000,1.241800e-04,0.040000,1.241800e-04,0.020000,
1.242000e-04,-4.000000,1.242000e-04,2.000000,1.242000e-04,0.040000,1.242000e-04,0.000000,
1.242200e-04,-4.000000,1.242200e-04,2.000000,1.242200e-04,0.040000,1.242200e-04,0.020000,
1.242400e-04,-4.000000,1.242400e-04,2.000000,1.242400e-04,0.040000,1.242400e-04,0.020000,
1.242600e-04,-4.000000,1.242600e-04,2.000000,1.242600e-04,0.040000,1.242600e-04,0.000000,
1.242800e-04,-4.000000,1.242800e-04,2.000000,1.242800e-04,0.040000,1.242800e-04,0.020000,
1.243000e-04,0.000000,1.243000e-04,2.000000,1.243000e-04,0.040000,1.243000e-04,0.020000,
1.243200e-04,-4.000000,1.243200e-04,2.000000,1.243200e-04,0.040000,1.243200e-04,0.020000,
1.243400e-04,-4.000000,1.243400e-04,2.000000,1.243400e-04,0.040000,1.243400e-04,0.020000,
1.243600e-04,-4.000000,1.243600e-04,2.000000,1.243600e-04,0.040000,1.243600e-04,0.020000,
1.243800e-04,-4.000000,1.243800e-04,2.000000,1.243800e-04,0.040000,1.243800e-04,0.020000,
1.244000e-04,-4.000000,1.244000e-04,2.000000,1.244000e-04,0.040000,1.244000e-04,0.020000,
1.244200e-04,-4.000000,1.244200e-04,2.000000,1.244200e-04,0.040000,1.244200e-04,0.020000,
1.244400e-04,-4.000000,1.244400e-04,2.000000,1.244400e-04,0.040000,1.244400e-04,0.020000,
1.244600e-04,-4.000000,1.244600e-04,2.000000,1.244600e-04,0.040000,1.244600e-04,0.020000,
1.244800e-04,0.000000,1.244800e-04,2.000000,1.244800e-04,0.040000,1.244800e-04,0.020000,
1.245000e-04,0.000000,1.245000e-04,2.000000,1.245000e-04,0.040000,1.245000e-04,0.020000,
1.245200e-04,-4.000000,1.245200e-04,2.000000,1.245200e-04,0.040000,1.245200e-04,0.020000,
1.245400e-04,-4.000000,1.245400e-04,2.000000,1.245400e-04,0.060000,1.245400e-04,0.000000,
1.245600e-04,-4.000000,1.245600e-04,2.000000,1.245600e-04,0.040000,1.245600e-04,0.000000,
1.245800e-04,-4.000000,1.245800e-04,2.000000,1.245800e-04,0.040000,1.245800e-04,0.020000,
1.246000e-04,-4.000000,1.246000e-04,2.000000,1.246000e-04,0.040000,1.246000e-04,0.020000,
1.246200e-04,-4.000000,1.246200e-04,2.000000,1.246200e-04,0.040000,1.246200e-04,0.020000,
1.246400e-04,-4.000000,1.246400e-04,2.000000,1.246400e-04,0.040000,1.246400e-04,0.020000,
1.246600e-04,-4.000000,1.246600e-04,2.000000,1.246600e-04,0.040000,1.246600e-04,0.000000,
1.246800e-04,-4.000000,1.246800e-04,2.000000,1.246800e-04,0.040000,1.246800e-04,0.020000,
1.247000e-04,-4.000000,1.247000e-04,2.000000,1.247000e-04,0.060000,1.247000e-04,0.020000,
1.247200e-04,-4.000000,1.247200e-04,2.000000,1.247200e-04,0.040000,1.247200e-04,0.020000,
1.247400e-04,-4.000000,1.247400e-04,2.000000,1.247400e-04,0.040000,1.247400e-04,0.020000,
1.247600e-04,-4.000000,1.247600e-04,2.000000,1.247600e-04,0.040000,1.247600e-04,0.020000,
1.247800e-04,-4.000000,1.247800e-04,2.000000,1.247800e-04,0.040000,1.247800e-04,0.020000,
1.248000e-04,0.000000,1.248000e-04,2.000000,1.248000e-04,0.040000,1.248000e-04,0.020000,
1.248200e-04,-4.000000,1.248200e-04,2.000000,1.248200e-04,0.040000,1.248200e-04,0.020000,
1.248400e-04,-4.000000,1.248400e-04,2.000000,1.248400e-04,0.040000,1.248400e-04,0.020000,
1.248600e-04,-4.000000,1.248600e-04,2.000000,1.248600e-04,0.040000,1.248600e-04,0.020000,
1.248800e-04,0.000000,1.248800e-04,2.000000,1.248800e-04,0.040000,1.248800e-04,0.020000,
1.249000e-04,0.000000,1.249000e-04,2.000000,1.249000e-04,0.040000,1.249000e-04,0.020000,
1.249200e-04,-4.000000,1.249200e-04,2.000000,1.249200e-04,0.040000,1.249200e-04,0.000000,
1.249400e-04,-4.000000,1.249400e-04,2.000000,1.249400e-04,0.040000,1.249400e-04,0.000000,
1.249600e-04,0.000000,1.249600e-04,2.000000,1.249600e-04,0.040000,1.249600e-04,0.020000,
1.249800e-04,-4.000000,1.249800e-04,2.000000,1.249800e-04,0.040000,1.249800e-04,0.020000,
1.250000e-04,-4.000000,1.250000e-04,2.000000,1.250000e-04,0.020000,1.250000e-04,0.000000,
1.250200e-04,0.000000,1.250200e-04,2.000000,1.250200e-04,0.040000,1.250200e-04,0.020000,
1.250400e-04,-4.000000,1.250400e-04,2.000000,1.250400e-04,0.040000,1.250400e-04,0.020000,
1.250600e-04,-4.000000,1.250600e-04,2.000000,1.250600e-04,0.040000,1.250600e-04,0.020000,
1.250800e-04,-4.000000,1.250800e-04,2.000000,1.250800e-04,0.040000,1.250800e-04,0.000000,
1.251000e-04,0.000000,1.251000e-04,2.000000,1.251000e-04,0.040000,1.251000e-04,0.020000,
1.251200e-04,0.000000,1.251200e-04,2.000000,1.251200e-04,0.040000,1.251200e-04,0.020000,
1.251400e-04,-4.000000,1.251400e-04,2.000000,1.251400e-04,0.040000,1.251400e-04,0.020000,
1.251600e-04,-4.000000,1.251600e-04,2.000000,1.251600e-04,0.040000,1.251600e-04,0.020000,
1.251800e-04,0.000000,1.251800e-04,2.000000,1.251800e-04,0.040000,1.251800e-04,0.000000,
1.252000e-04,0.000000,1.252000e-04,2.000000,1.252000e-04,0.040000,1.252000e-04,0.020000,
1.252200e-04,-4.000000,1.252200e-04,2.000000,1.252200e-04,0.040000,1.252200e-04,0.020000,
1.252400e-04,-4.000000,1.252400e-04,2.000000,1.252400e-04,0.040000,1.252400e-04,0.020000,
1.252600e-04,0.000000,1.252600e-04,2.000000,1.252600e-04,0.040000,1.252600e-04,0.020000,
1.252800e-04,-4.000000,1.252800e-04,2.000000,1.252800e-04,0.040000,1.252800e-04,0.020000,
1.253000e-04,-4.000000,1.253000e-04,2.000000,1.253000e-04,0.060000,1.253000e-04,0.020000,
1.253200e-04,-4.000000,1.253200e-04,2.000000,1.253200e-04,0.040000,1.253200e-04,0.020000,
1.253400e-04,0.000000,1.253400e-04,2.000000,1.253400e-04,0.040000,1.253400e-04,0.020000,
1.253600e-04,-4.000000,1.253600e-04,2.000000,1.253600e-04,0.040000,1.253600e-04,0.020000,
1.253800e-04,-4.000000,1.253800e-04,2.000000,1.253800e-04,0.040000,1.253800e-04,0.020000,
1.254000e-04,-4.000000,1.254000e-04,2.000000,1.254000e-04,0.040000,1.254000e-04,0.020000,
1.254200e-04,-4.000000,1.254200e-04,2.000000,1.254200e-04,0.040000,1.254200e-04,0.020000,
1.254400e-04,-4.000000,1.254400e-04,2.000000,1.254400e-04,0.040000,1.254400e-04,0.020000,
1.254600e-04,-4.000000,1.254600e-04,2.000000,1.254600e-04,0.040000,1.254600e-04,0.020000,
1.254800e-04,-4.000000,1.254800e-04,2.000000,1.254800e-04,0.040000,1.254800e-04,0.020000,
1.255000e-04,0.000000,1.255000e-04,2.000000,1.255000e-04,0.040000,1.255000e-04,0.020000,
1.255200e-04,0.000000,1.255200e-04,2.000000,1.255200e-04,0.040000,1.255200e-04,0.020000,
1.255400e-04,-4.000000,1.255400e-04,2.000000,1.255400e-04,0.040000,1.255400e-04,0.020000,
1.255600e-04,-4.000000,1.255600e-04,2.000000,1.255600e-04,0.040000,1.255600e-04,0.000000,
1.255800e-04,-4.000000,1.255800e-04,0.000000,1.255800e-04,0.040000,1.255800e-04,0.020000,
1.256000e-04,-4.000000,1.256000e-04,2.000000,1.256000e-04,0.040000,1.256000e-04,0.020000,
1.256200e-04,0.000000,1.256200e-04,2.000000,1.256200e-04,0.040000,1.256200e-04,0.020000,
1.256400e-04,-4.000000,1.256400e-04,2.000000,1.256400e-04,0.040000,1.256400e-04,0.020000,
1.256600e-04,-4.000000,1.256600e-04,2.000000,1.256600e-04,0.040000,1.256600e-04,0.020000,
1.256800e-04,-4.000000,1.256800e-04,2.000000,1.256800e-04,0.040000,1.256800e-04,0.020000,
1.257000e-04,-4.000000,1.257000e-04,2.000000,1.257000e-04,0.020000,1.257000e-04,0.000000,
1.257200e-04,-8.000000,1.257200e-04,0.000000,1.257200e-04,-2.220000,1.257200e-04,1.380000,
1.257400e-04,80.000000,1.257400e-04,10.000000,1.257400e-04,2.880000,1.257400e-04,-1.400000,
1.257600e-04,84.000000,1.257600e-04,12.000000,1.257600e-04,2.880000,1.257600e-04,3.700000,
1.257800e-04,212.000000,1.257800e-04,76.000000,1.257800e-04,-2.220000,1.257800e-04,-1.400000,
1.258000e-04,208.000000,1.258000e-04,78.000000,1.258000e-04,-0.980000,1.258000e-04,3.700000,
1.258200e-04,160.000000,1.258200e-04,58.000000,1.258200e-04,1.880000,1.258200e-04,-1.400000,
1.258400e-04,156.000000,1.258400e-04,50.000000,1.258400e-04,1.320000,1.258400e-04,1.980000,
1.258600e-04,180.000000,1.258600e-04,52.000000,1.258600e-04,0.480000,1.258600e-04,-0.420000,
1.258800e-04,184.000000,1.258800e-04,60.000000,1.258800e-04,1.020000,1.258800e-04,0.720000,
1.259000e-04,176.000000,1.259000e-04,62.000000,1.259000e-04,0.540000,1.259000e-04,1.000000,
1.259200e-04,176.000000,1.259200e-04,60.000000,1.259200e-04,0.740000,1.259200e-04,0.800000,
1.259400e-04,176.000000,1.259400e-04,58.000000,1.259400e-04,0.760000,1.259400e-04,0.780000,
1.259600e-04,172.000000,1.259600e-04,54.000000,1.259600e-04,0.800000,1.259600e-04,0.740000,
1.259800e-04,172.000000,1.259800e-04,56.000000,1.259800e-04,0.820000,1.259800e-04,0.760000,
1.260000e-04,176.000000,1.260000e-04,60.000000,1.260000e-04,0.800000,1.260000e-04,0.860000,
1.260200e-04,180.000000,1.260200e-04,62.000000,1.260200e-04,0.760000,1.260200e-04,0.900000,
1.260400e-04,176.000000,1.260400e-04,62.000000,1.260400e-04,0.780000,1.260400e-04,0.840000,
1.260600e-04,172.000000,1.260600e-04,58.000000,1.260600e-04,0.860000,1.260600e-04,0.780000,
1.260800e-04,176.000000,1.260800e-04,58.000000,1.260800e-04,0.860000,1.260800e-04,0.780000,
1.261000e-04,180.000000,1.261000e-04,62.000000,1.261000e-04,0.860000,1.261000e-04,0.860000,
1.261200e-04,180.000000,1.261200e-04,66.000000,1.261200e-04,0.840000,1.261200e-04,0.880000,
1.261400e-04,176.000000,1.261400e-04,66.000000,1.261400e-04,0.820000,1.261400e-04,0.880000,
1.261600e-04,176.000000,1.261600e-04,64.000000,1.261600e-04,0.840000,1.261600e-04,0.840000,
1.261800e-04,176.000000,1.261800e-04,62.000000,1.261800e-04,0.840000,1.261800e-04,0.840000,
1.262000e-04,176.000000,1.262000e-04,62.000000,1.262000e-04,0.860000,1.262000e-04,0.840000,
1.262200e-04,176.000000,1.262200e-04,66.000000,1.262200e-04,0.860000,1.262200e-04,0.880000,
1.262400e-04,176.000000,1.262400e-04,68.000000,1.262400e-04,0.860000,1.262400e-04,0.900000,
1.262600e-04,176.000000,1.262600e-04,68.000000,1.262600e-04,0.860000,1.262600e-04,0.880000,
1.262800e-04,176.000000,1.262800e-04,68.000000,1.262800e-04,0.880000,1.262800e-04,0.880000,
1.263000e-04,176.000000,1.263000e-04,68.000000,1.263000e-04,0.880000,1.263000e-04,0.880000,
1.263200e-04,176.000000,1.263200e-04,72.000000,1.263200e-04,0.900000,1.263200e-04,0.900000,
1.263400e-04,180.000000,1.263400e-04,72.000000,1.263400e-04,0.900000,1.263400e-04,0.940000,
1.263600e-04,180.000000,1.263600e-04,74.000000,1.263600e-04,2.880000,1.263600e-04,2.280000,
1.263800e-04,-8.000000,1.263800e-04,46.000000,1.263800e-04,-2.220000,1.263800e-04,-0.460000,
1.264000e-04,12.000000,1.264000e-04,44.000000,1.264000e-04,2.880000,1.264000e-04,2.080000,
1.264200e-04,-88.000000,1.264200e-04,-14.000000,1.264200e-04,-2.220000,1.264200e-04,-1.400000,
1.264400e-04,-32.000000,1.264400e-04,-10.000000,1.264400e-04,1.880000,1.264400e-04,-1.400000,
1.264600e-04,32.000000,1.264600e-04,36.000000,1.264600e-04,-1.140000,1.264600e-04,1.540000,
1.264800e-04,28.000000,1.264800e-04,32.000000,1.264800e-04,1.140000,1.264800e-04,0.800000,
1.265000e-04,-24.000000,1.265000e-04,22.000000,1.265000e-04,-1.060000,1.265000e-04,-0.220000,
1.265200e-04,-16.000000,1.265200e-04,22.000000,1.265200e-04,0.480000,1.265200e-04,-0.100000,
1.265400e-04,4.000000,1.265400e-04,24.000000,1.265400e-04,-0.120000,1.265400e-04,0.360000,
1.265600e-04,-8.000000,1.265600e-04,26.000000,1.265600e-04,0.000000,1.265600e-04,0.000000,
1.265800e-04,-4.000000,1.265800e-04,32.000000,1.265800e-04,0.460000,1.265800e-04,0.400000,
1.266000e-04,8.000000,1.266000e-04,34.000000,1.266000e-04,0.280000,1.266000e-04,0.400000,
1.266200e-04,-4.000000,1.266200e-04,30.000000,1.266200e-04,0.040000,1.266200e-04,0.060000,
1.266400e-04,-8.000000,1.266400e-04,26.000000,1.266400e-04,0.260000,1.266400e-04,0.220000,
1.266600e-04,-4.000000,1.266600e-04,28.000000,1.266600e-04,0.240000,1.266600e-04,0.020000,
1.266800e-04,0.000000,1.266800e-04,34.000000,1.266800e-04,0.280000,1.266800e-04,0.100000,
1.267000e-04,0.000000,1.267000e-04,36.000000,1.267000e-04,0.080000,1.267000e-04,0.320000,
1.267200e-04,-4.000000,1.267200e-04,34.000000,1.267200e-04,0.220000,1.267200e-04,0.200000,
1.267400e-04,-8.000000,1.267400e-04,30.000000,1.267400e-04,0.220000,1.267400e-04,0.140000,
1.267600e-04,-4.000000,1.267600e-04,32.000000,1.267600e-04,0.200000,1.267600e-04,0.180000,
1.267800e-04,-4.000000,1.267800e-04,36.000000,1.267800e-04,0.240000,1.267800e-04,0.220000,
1.268000e-04,-4.000000,1.268000e-04,40.000000,1.268000e-04,0.260000,1.268000e-04,0.260000,
1.268200e-04,0.000000,1.268200e-04,42.000000,1.268200e-04,0.240000,1.268200e-04,0.260000,
1.268400e-04,-4.000000,1.268400e-04,40.000000,1.268400e-04,0.240000,1.268400e-04,0.240000,
1.268600e-04,-4.000000,1.268600e-04,38.000000,1.268600e-04,0.260000,1.268600e-04,0.220000,
1.268800e-04,-4.000000,1.268800e-04,40.000000,1.268800e-04,0.260000,1.268800e-04,0.220000,
1.269000e-04,-4.000000,1.269000e-04,42.000000,1.269000e-04,0.240000,1.269000e-04,0.260000,
